vivado_refine/project.sim/sim_1/behav/xsim/dump.vcd
$date
   Wed Feb  7 13:02:23 2024
$end

$version
  2023.2.1
$end

$timescale
  1ps
$end

$scope module tb_bd_0_wrapper $end
$var reg 1 ! ap_clk $end
$var reg 1 " ap_ctrl_start $end
$var reg 1 # ap_rst $end
$var reg 32 $ coolingConstant [31:0] $end
$var reg 32 % mediumTemperature [31:0] $end
$var reg 32 & temperature_i [31:0] $end
$var reg 32 ' timeStep [31:0] $end
$var reg 1 ( ap_ctrl_done $end
$var reg 1 ) ap_ctrl_idle $end
$var reg 1 * ap_ctrl_ready $end
$var reg 32 + temperature_o [31:0] $end
$var reg 1 , temperature_o_ap_vld $end
$scope module uut $end
$var wire 1 - ap_clk $end
$var wire 1 . ap_ctrl_done $end
$var wire 1 / ap_ctrl_idle $end
$var wire 1 0 ap_ctrl_ready $end
$var wire 1 1 ap_ctrl_start $end
$var wire 1 2 ap_rst $end
$var wire 32 3 coolingConstant [31:0] $end
$var wire 32 4 mediumTemperature [31:0] $end
$var wire 32 5 temperature_i [31:0] $end
$var wire 32 6 temperature_o [31:0] $end
$var wire 1 7 temperature_o_ap_vld $end
$var wire 32 8 timeStep [31:0] $end
$scope module bd_0_i $end
$var wire 1 - ap_clk $end
$var wire 1 . ap_ctrl_done $end
$var wire 1 / ap_ctrl_idle $end
$var wire 1 0 ap_ctrl_ready $end
$var wire 1 1 ap_ctrl_start $end
$var wire 1 2 ap_rst $end
$var wire 32 3 coolingConstant [31:0] $end
$var wire 32 4 mediumTemperature [31:0] $end
$var wire 32 5 temperature_i [31:0] $end
$var wire 32 6 temperature_o [31:0] $end
$var wire 1 7 temperature_o_ap_vld $end
$var wire 32 8 timeStep [31:0] $end
$var wire 1 9 ap_clk_0_1 $end
$var wire 1 : ap_ctrl_0_1_done $end
$var wire 1 ; ap_ctrl_0_1_idle $end
$var wire 1 < ap_ctrl_0_1_ready $end
$var wire 1 = ap_ctrl_0_1_start $end
$var wire 1 > ap_rst_0_1 $end
$var wire 32 ? coolingConstant_0_1 [31:0] $end
$var wire 32 @ hls_inst_temperature_o [31:0] $end
$var wire 1 A hls_inst_temperature_o_ap_vld $end
$var wire 32 B mediumTemperature_0_1 [31:0] $end
$var wire 32 C temperature_i_0_1 [31:0] $end
$var wire 32 D timeStep_0_1 [31:0] $end
$scope module hls_inst $end
$var wire 1 A temperature_o_ap_vld $end
$var wire 1 9 ap_clk $end
$var wire 1 > ap_rst $end
$var wire 1 = ap_start $end
$var wire 1 : ap_done $end
$var wire 1 ; ap_idle $end
$var wire 1 < ap_ready $end
$var wire 32 C temperature_i [31:0] $end
$var wire 32 @ temperature_o [31:0] $end
$var wire 32 B mediumTemperature [31:0] $end
$var wire 32 ? coolingConstant [31:0] $end
$var wire 32 D timeStep [31:0] $end
$scope module inst $end
$var wire 1 9 ap_clk $end
$var wire 1 > ap_rst $end
$var wire 1 = ap_start $end
$var wire 32 C temperature_i [31:0] $end
$var wire 32 @ temperature_o [31:0] $end
$var wire 32 B mediumTemperature [31:0] $end
$var wire 32 ? coolingConstant [31:0] $end
$var wire 32 D timeStep [31:0] $end
$var reg 1 E ap_done $end
$var reg 1 F ap_idle $end
$var reg 1 G ap_ready $end
$var reg 1 H temperature_o_ap_vld $end
$var reg 7 I ap_CS_fsm [6:0] $end
$var wire 1 J ap_CS_fsm_state1 $end
$var reg 32 K temperature_read_reg_149 [31:0] $end
$var wire 33 L sub_ln5_fu_87_p2 [32:0] $end
$var reg 33 M sub_ln5_reg_154 [32:0] $end
$var wire 1 N ap_CS_fsm_state2 $end
$var wire 48 O grp_fu_75_p2 [47:0] $end
$var reg 48 P mul_ln5_reg_169 [47:0] $end
$var wire 1 Q ap_CS_fsm_state3 $end
$var reg 32 R derivative_reg_174 [31:0] $end
$var wire 1 S ap_CS_fsm_state4 $end
$var wire 1 T ap_CS_fsm_state5 $end
$var wire 48 U grp_fu_71_p2 [47:0] $end
$var reg 48 V mul_ln14_reg_189 [47:0] $end
$var wire 1 W ap_CS_fsm_state6 $end
$var wire 1 X ap_CS_fsm_state7 $end
$var wire 32 Y sext_ln5_fu_79_p0 [31:0] $end
$var wire 33 Z sext_ln5_fu_79_p1 [32:0] $end
$var wire 33 [ sext_ln5_1_fu_83_p1 [32:0] $end
$var wire 48 \ sub_ln5_1_fu_102_p2 [47:0] $end
$var wire 48 ] shl_ln_fu_126_p3 [47:0] $end
$var wire 48 ^ add_ln14_fu_133_p2 [47:0] $end
$var reg 7 _ ap_NS_fsm [6:0] $end
$var reg 1 ` ap_ST_fsm_state1_blk $end
$var wire 1 a ap_ST_fsm_state2_blk $end
$var wire 1 b ap_ST_fsm_state3_blk $end
$var wire 1 c ap_ST_fsm_state4_blk $end
$var wire 1 d ap_ST_fsm_state5_blk $end
$var wire 1 e ap_ST_fsm_state6_blk $end
$var wire 1 f ap_ST_fsm_state7_blk $end
$var wire 1 g ap_ce_reg $end
$scope module mul_32s_32s_48_2_1_U1 $end
$var wire 1 9 clk $end
$var wire 1 h ce $end
$var wire 1 > reset $end
$var wire 32 i din0 [31:0] $end
$var wire 32 D din1 [31:0] $end
$var wire 48 U dout [47:0] $end
$var wire 48 j tmp_product [47:0] $end
$var reg 48 k buff0 [47:0] $end
$upscope $end
$scope module mul_33s_32s_48_2_1_U2 $end
$var wire 1 9 clk $end
$var wire 1 h ce $end
$var wire 1 > reset $end
$var wire 33 l din0 [32:0] $end
$var wire 32 ? din1 [31:0] $end
$var wire 48 O dout [47:0] $end
$var wire 48 m tmp_product [47:0] $end
$var reg 48 n buff0 [47:0] $end
$upscope $end
$upscope $end
$upscope $end
$upscope $end
$upscope $end
$upscope $end
$enddefinitions $end

#1000000
$dumpvars
0!
1"
0#
b1100100 $
b11001 %
b1010101 &
b1010 '
0(
0)
0*
b1010101 +
0,
0-
0.
0/
00
11
02
b1100100 3
b11001 4
b1010101 5
b1010101 6
07
b1010 8
09
0:
0;
0<
1=
0>
b1100100 ?
b1010101 @
0A
b11001 B
b1010101 C
b1010 D
0E
0F
0G
0H
b10 I
0J
b1010110 K
b111100 L
b111101 M
1N
b1100000111000 O
b1100000111000 P
0Q
b11111111111111111111111111111111 R
0S
0T
b111111111111111111111111111111111111111111110110 U
b111111111111111111111111111111111111111111110110 V
0W
0X
b1010101 Y
b1010101 Z
b11001 [
b111111111111111111111111111111111110011111001000 \
b10101100000000000000000 ]
b10101011111111111110110 ^
b100 _
0`
0a
0b
0c
0d
0e
0f
zg
1h
b11111111111111111111111111111111 i
b111111111111111111111111111111111111111111110110 j
b111111111111111111111111111111111111111111110110 k
b111101 l
b1011111010100 m
b1100000111000 n
$end

#1005000
1!
1-
19
b100 I
0N
b1011111010100 O
1Q
b1000 _
b1011111010100 n

#1010000
0!
0-
09

#1015000
1!
1-
19
b1000 I
b1011111010100 P
0Q
1S
b111111111111111111111111111111111110100000101100 \
b10000 _

#1020000
0!
0-
09

#1025000
1!
1-
19
b10000 I
0S
1T
b100000 _

#1030000
0!
0-
09

#1035000
1!
1-
19
b100000 I
0T
1W
b1000000 _

#1040000
0!
0-
09

#1045000
1!
1(
1*
1,
1-
1.
10
17
19
1:
1<
1A
1E
1G
1H
b1000000 I
0W
1X
b1 _

#1050000
0!
0-
09

#1055000
1!
0(
0*
0,
1-
0.
00
07
19
0:
0<
0A
0E
0G
0H
b1 I
1J
0X
b10 _

#1060000
0!
0-
09

#1065000
1!
b1010100 +
1-
b1010100 6
19
b1010100 @
b10 I
0J
b1010101 K
b111100 M
1N
b10101010000000000000000 ]
b10101001111111111110110 ^
b100 _
b111100 l
b1011101110000 m

#1070000
0!
b1010100 &
0-
b1010100 5
09
b1010100 C
b111011 L
b1010100 Y
b1010100 Z

#1075000
1!
1-
19
b100 I
0N
b1011101110000 O
1Q
b1000 _
b1011101110000 n

#1080000
0!
0-
09

#1085000
1!
1-
19
b1000 I
b1011101110000 P
0Q
1S
b111111111111111111111111111111111110100010010000 \
b10000 _

#1090000
0!
0-
09

#1095000
1!
1-
19
b10000 I
0S
1T
b100000 _

#1100000
0!
0-
09

#1105000
1!
1-
19
b100000 I
0T
1W
b1000000 _

#1110000
0!
0-
09

#1115000
1!
1(
1*
1,
1-
1.
10
17
19
1:
1<
1A
1E
1G
1H
b1000000 I
0W
1X
b1 _

#1120000
0!
0-
09

#1125000
1!
0(
0*
0,
1-
0.
00
07
19
0:
0<
0A
0E
0G
0H
b1 I
1J
0X
b10 _

#1130000
0!
0-
09

#1135000
1!
b1010011 +
1-
b1010011 6
19
b1010011 @
b10 I
0J
b1010100 K
b111011 M
1N
b10101000000000000000000 ]
b10100111111111111110110 ^
b100 _
b111011 l
b1011100001100 m

#1140000
0!
b1010011 &
0-
b1010011 5
09
b1010011 C
b111010 L
b1010011 Y
b1010011 Z

#1145000
1!
1-
19
b100 I
0N
b1011100001100 O
1Q
b1000 _
b1011100001100 n

#1150000
0!
0-
09

#1155000
1!
1-
19
b1000 I
b1011100001100 P
0Q
1S
b111111111111111111111111111111111110100011110100 \
b10000 _

#1160000
0!
0-
09

#1165000
1!
1-
19
b10000 I
0S
1T
b100000 _

#1170000
0!
0-
09

#1175000
1!
1-
19
b100000 I
0T
1W
b1000000 _

#1180000
0!
0-
09

#1185000
1!
1(
1*
1,
1-
1.
10
17
19
1:
1<
1A
1E
1G
1H
b1000000 I
0W
1X
b1 _

#1190000
0!
0-
09

#1195000
1!
0(
0*
0,
1-
0.
00
07
19
0:
0<
0A
0E
0G
0H
b1 I
1J
0X
b10 _

#1200000
0!
0-
09

#1205000
1!
b1010010 +
1-
b1010010 6
19
b1010010 @
b10 I
0J
b1010011 K
b111010 M
1N
b10100110000000000000000 ]
b10100101111111111110110 ^
b100 _
b111010 l
b1011010101000 m

#1210000
0!
b1010010 &
0-
b1010010 5
09
b1010010 C
b111001 L
b1010010 Y
b1010010 Z

#1215000
1!
1-
19
b100 I
0N
b1011010101000 O
1Q
b1000 _
b1011010101000 n

#1220000
0!
0-
09

#1225000
1!
1-
19
b1000 I
b1011010101000 P
0Q
1S
b111111111111111111111111111111111110100101011000 \
b10000 _

#1230000
0!
0-
09

#1235000
1!
1-
19
b10000 I
0S
1T
b100000 _

#1240000
0!
0-
09

#1245000
1!
1-
19
b100000 I
0T
1W
b1000000 _

#1250000
0!
0-
09

#1255000
1!
1(
1*
1,
1-
1.
10
17
19
1:
1<
1A
1E
1G
1H
b1000000 I
0W
1X
b1 _

#1260000
0!
0-
09

#1265000
1!
0(
0*
0,
1-
0.
00
07
19
0:
0<
0A
0E
0G
0H
b1 I
1J
0X
b10 _

#1270000
0!
0-
09

#1275000
1!
b1010001 +
1-
b1010001 6
19
b1010001 @
b10 I
0J
b1010010 K
b111001 M
1N
b10100100000000000000000 ]
b10100011111111111110110 ^
b100 _
b111001 l
b1011001000100 m

#1280000
0!
b1010001 &
0-
b1010001 5
09
b1010001 C
b111000 L
b1010001 Y
b1010001 Z

#1285000
1!
1-
19
b100 I
0N
b1011001000100 O
1Q
b1000 _
b1011001000100 n

#1290000
0!
0-
09

#1295000
1!
1-
19
b1000 I
b1011001000100 P
0Q
1S
b111111111111111111111111111111111110100110111100 \
b10000 _

#1300000
0!
0-
09

#1305000
1!
1-
19
b10000 I
0S
1T
b100000 _

#1310000
0!
0-
09

#1315000
1!
1-
19
b100000 I
0T
1W
b1000000 _

#1320000
0!
0-
09

#1325000
1!
1(
1*
1,
1-
1.
10
17
19
1:
1<
1A
1E
1G
1H
b1000000 I
0W
1X
b1 _

#1330000
0!
0-
09

#1335000
1!
0(
0*
0,
1-
0.
00
07
19
0:
0<
0A
0E
0G
0H
b1 I
1J
0X
b10 _

#1340000
0!
0-
09

#1345000
1!
b1010000 +
1-
b1010000 6
19
b1010000 @
b10 I
0J
b1010001 K
b111000 M
1N
b10100010000000000000000 ]
b10100001111111111110110 ^
b100 _
b111000 l
b1010111100000 m

#1350000
0!
b1010000 &
0-
b1010000 5
09
b1010000 C
b110111 L
b1010000 Y
b1010000 Z

#1355000
1!
1-
19
b100 I
0N
b1010111100000 O
1Q
b1000 _
b1010111100000 n

#1360000
0!
0-
09

#1365000
1!
1-
19
b1000 I
b1010111100000 P
0Q
1S
b111111111111111111111111111111111110101000100000 \
b10000 _

#1370000
0!
0-
09

#1375000
1!
1-
19
b10000 I
0S
1T
b100000 _

#1380000
0!
0-
09

#1385000
1!
1-
19
b100000 I
0T
1W
b1000000 _

#1390000
0!
0-
09

#1395000
1!
1(
1*
1,
1-
1.
10
17
19
1:
1<
1A
1E
1G
1H
b1000000 I
0W
1X
b1 _

#1400000
0!
0-
09

#1405000
1!
0(
0*
0,
1-
0.
00
07
19
0:
0<
0A
0E
0G
0H
b1 I
1J
0X
b10 _

#1410000
0!
0-
09

#1415000
1!
b1001111 +
1-
b1001111 6
19
b1001111 @
b10 I
0J
b1010000 K
b110111 M
1N
b10100000000000000000000 ]
b10011111111111111110110 ^
b100 _
b110111 l
b1010101111100 m

#1420000
0!
b1001111 &
0-
b1001111 5
09
b1001111 C
b110110 L
b1001111 Y
b1001111 Z

#1425000
1!
1-
19
b100 I
0N
b1010101111100 O
1Q
b1000 _
b1010101111100 n

#1430000
0!
0-
09

#1435000
1!
1-
19
b1000 I
b1010101111100 P
0Q
1S
b111111111111111111111111111111111110101010000100 \
b10000 _

#1440000
0!
0-
09

#1445000
1!
1-
19
b10000 I
0S
1T
b100000 _

#1450000
0!
0-
09

#1455000
1!
1-
19
b100000 I
0T
1W
b1000000 _

#1460000
0!
0-
09

#1465000
1!
1(
1*
1,
1-
1.
10
17
19
1:
1<
1A
1E
1G
1H
b1000000 I
0W
1X
b1 _

#1470000
0!
0-
09

#1475000
1!
0(
0*
0,
1-
0.
00
07
19
0:
0<
0A
0E
0G
0H
b1 I
1J
0X
b10 _

#1480000
0!
0-
09

#1485000
1!
b1001110 +
1-
b1001110 6
19
b1001110 @
b10 I
0J
b1001111 K
b110110 M
1N
b10011110000000000000000 ]
b10011101111111111110110 ^
b100 _
b110110 l
b1010100011000 m

#1490000
0!
b1001110 &
0-
b1001110 5
09
b1001110 C
b110101 L
b1001110 Y
b1001110 Z

#1495000
1!
1-
19
b100 I
0N
b1010100011000 O
1Q
b1000 _
b1010100011000 n

#1500000
0!
0-
09

#1505000
1!
1-
19
b1000 I
b1010100011000 P
0Q
1S
b111111111111111111111111111111111110101011101000 \
b10000 _

#1510000
0!
0-
09

#1515000
1!
1-
19
b10000 I
0S
1T
b100000 _

#1520000
0!
0-
09

#1525000
1!
1-
19
b100000 I
0T
1W
b1000000 _

#1530000
0!
0-
09

#1535000
1!
1(
1*
1,
1-
1.
10
17
19
1:
1<
1A
1E
1G
1H
b1000000 I
0W
1X
b1 _

#1540000
0!
0-
09

#1545000
1!
0(
0*
0,
1-
0.
00
07
19
0:
0<
0A
0E
0G
0H
b1 I
1J
0X
b10 _

#1550000
0!
0-
09

#1555000
1!
b1001101 +
1-
b1001101 6
19
b1001101 @
b10 I
0J
b1001110 K
b110101 M
1N
b10011100000000000000000 ]
b10011011111111111110110 ^
b100 _
b110101 l
b1010010110100 m

#1560000
0!
b1001101 &
0-
b1001101 5
09
b1001101 C
b110100 L
b1001101 Y
b1001101 Z

#1565000
1!
1-
19
b100 I
0N
b1010010110100 O
1Q
b1000 _
b1010010110100 n

#1570000
0!
0-
09

#1575000
1!
1-
19
b1000 I
b1010010110100 P
0Q
1S
b111111111111111111111111111111111110101101001100 \
b10000 _

#1580000
0!
0-
09

#1585000
1!
1-
19
b10000 I
0S
1T
b100000 _

#1590000
0!
0-
09

#1595000
1!
1-
19
b100000 I
0T
1W
b1000000 _

#1600000
0!
0-
09

#1605000
1!
1(
1*
1,
1-
1.
10
17
19
1:
1<
1A
1E
1G
1H
b1000000 I
0W
1X
b1 _

#1610000
0!
0-
09

#1615000
1!
0(
0*
0,
1-
0.
00
07
19
0:
0<
0A
0E
0G
0H
b1 I
1J
0X
b10 _

#1620000
0!
0-
09

#1625000
1!
b1001100 +
1-
b1001100 6
19
b1001100 @
b10 I
0J
b1001101 K
b110100 M
1N
b10011010000000000000000 ]
b10011001111111111110110 ^
b100 _
b110100 l
b1010001010000 m

#1630000
0!
b1001100 &
0-
b1001100 5
09
b1001100 C
b110011 L
b1001100 Y
b1001100 Z

#1635000
1!
1-
19
b100 I
0N
b1010001010000 O
1Q
b1000 _
b1010001010000 n

#1640000
0!
0-
09

#1645000
1!
1-
19
b1000 I
b1010001010000 P
0Q
1S
b111111111111111111111111111111111110101110110000 \
b10000 _

#1650000
0!
0-
09

#1655000
1!
1-
19
b10000 I
0S
1T
b100000 _

#1660000
0!
0-
09

#1665000
1!
1-
19
b100000 I
0T
1W
b1000000 _

#1670000
0!
0-
09

#1675000
1!
1(
1*
1,
1-
1.
10
17
19
1:
1<
1A
1E
1G
1H
b1000000 I
0W
1X
b1 _

#1680000
0!
0-
09

#1685000
1!
0(
0*
0,
1-
0.
00
07
19
0:
0<
0A
0E
0G
0H
b1 I
1J
0X
b10 _

#1690000
0!
0-
09

#1695000
1!
b1001011 +
1-
b1001011 6
19
b1001011 @
b10 I
0J
b1001100 K
b110011 M
1N
b10011000000000000000000 ]
b10010111111111111110110 ^
b100 _
b110011 l
b1001111101100 m

#1700000
0!
b1001011 &
0-
b1001011 5
09
b1001011 C
b110010 L
b1001011 Y
b1001011 Z

#1705000
1!
1-
19
b100 I
0N
b1001111101100 O
1Q
b1000 _
b1001111101100 n

#1710000
0!
0-
09

#1715000
1!
1-
19
b1000 I
b1001111101100 P
0Q
1S
b111111111111111111111111111111111110110000010100 \
b10000 _

#1720000
0!
0-
09

#1725000
1!
1-
19
b10000 I
0S
1T
b100000 _

#1730000
0!
0-
09

#1735000
1!
1-
19
b100000 I
0T
1W
b1000000 _

#1740000
0!
0-
09

#1745000
1!
1(
1*
1,
1-
1.
10
17
19
1:
1<
1A
1E
1G
1H
b1000000 I
0W
1X
b1 _

#1750000
0!
0-
09

#1755000
1!
0(
0*
0,
1-
0.
00
07
19
0:
0<
0A
0E
0G
0H
b1 I
1J
0X
b10 _

#1760000
0!
0-
09

#1765000
1!
b1001010 +
1-
b1001010 6
19
b1001010 @
b10 I
0J
b1001011 K
b110010 M
1N
b10010110000000000000000 ]
b10010101111111111110110 ^
b100 _
b110010 l
b1001110001000 m

#1770000
0!
b1001010 &
0-
b1001010 5
09
b1001010 C
b110001 L
b1001010 Y
b1001010 Z

#1775000
1!
1-
19
b100 I
0N
b1001110001000 O
1Q
b1000 _
b1001110001000 n

#1780000
0!
0-
09

#1785000
1!
1-
19
b1000 I
b1001110001000 P
0Q
1S
b111111111111111111111111111111111110110001111000 \
b10000 _

#1790000
0!
0-
09

#1795000
1!
1-
19
b10000 I
0S
1T
b100000 _

#1800000
0!
0-
09

#1805000
1!
1-
19
b100000 I
0T
1W
b1000000 _

#1810000
0!
0-
09

#1815000
1!
1(
1*
1,
1-
1.
10
17
19
1:
1<
1A
1E
1G
1H
b1000000 I
0W
1X
b1 _

#1820000
0!
0-
09

#1825000
1!
0(
0*
0,
1-
0.
00
07
19
0:
0<
0A
0E
0G
0H
b1 I
1J
0X
b10 _

#1830000
0!
0-
09

#1835000
1!
b1001001 +
1-
b1001001 6
19
b1001001 @
b10 I
0J
b1001010 K
b110001 M
1N
b10010100000000000000000 ]
b10010011111111111110110 ^
b100 _
b110001 l
b1001100100100 m

#1840000
0!
b1001001 &
0-
b1001001 5
09
b1001001 C
b110000 L
b1001001 Y
b1001001 Z

#1845000
1!
1-
19
b100 I
0N
b1001100100100 O
1Q
b1000 _
b1001100100100 n

#1850000
0!
0-
09

#1855000
1!
1-
19
b1000 I
b1001100100100 P
0Q
1S
b111111111111111111111111111111111110110011011100 \
b10000 _

#1860000
0!
0-
09

#1865000
1!
1-
19
b10000 I
0S
1T
b100000 _

#1870000
0!
0-
09

#1875000
1!
1-
19
b100000 I
0T
1W
b1000000 _

#1880000
0!
0-
09

#1885000
1!
1(
1*
1,
1-
1.
10
17
19
1:
1<
1A
1E
1G
1H
b1000000 I
0W
1X
b1 _

#1890000
0!
0-
09

#1895000
1!
0(
0*
0,
1-
0.
00
07
19
0:
0<
0A
0E
0G
0H
b1 I
1J
0X
b10 _

#1900000
0!
0-
09

#1905000
1!
b1001000 +
1-
b1001000 6
19
b1001000 @
b10 I
0J
b1001001 K
b110000 M
1N
b10010010000000000000000 ]
b10010001111111111110110 ^
b100 _
b110000 l
b1001011000000 m

#1910000
0!
b1001000 &
0-
b1001000 5
09
b1001000 C
b101111 L
b1001000 Y
b1001000 Z

#1915000
1!
1-
19
b100 I
0N
b1001011000000 O
1Q
b1000 _
b1001011000000 n

#1920000
0!
0-
09

#1925000
1!
1-
19
b1000 I
b1001011000000 P
0Q
1S
b111111111111111111111111111111111110110101000000 \
b10000 _

#1930000
0!
0-
09

#1935000
1!
1-
19
b10000 I
0S
1T
b100000 _

#1940000
0!
0-
09

#1945000
1!
1-
19
b100000 I
0T
1W
b1000000 _

#1950000
0!
0-
09

#1955000
1!
1(
1*
1,
1-
1.
10
17
19
1:
1<
1A
1E
1G
1H
b1000000 I
0W
1X
b1 _

#1960000
0!
0-
09

#1965000
1!
0(
0*
0,
1-
0.
00
07
19
0:
0<
0A
0E
0G
0H
b1 I
1J
0X
b10 _

#1970000
0!
0-
09

#1975000
1!
b1000111 +
1-
b1000111 6
19
b1000111 @
b10 I
0J
b1001000 K
b101111 M
1N
b10010000000000000000000 ]
b10001111111111111110110 ^
b100 _
b101111 l
b1001001011100 m

#1980000
0!
b1000111 &
0-
b1000111 5
09
b1000111 C
b101110 L
b1000111 Y
b1000111 Z

#1985000
1!
1-
19
b100 I
0N
b1001001011100 O
1Q
b1000 _
b1001001011100 n

#1990000
0!
0-
09

#1995000
1!
1-
19
b1000 I
b1001001011100 P
0Q
1S
b111111111111111111111111111111111110110110100100 \
b10000 _

#2000000
0!
0-
09

#2005000
1!
1-
19
b10000 I
0S
1T
b100000 _

#2010000
0!
0-
09

#2015000
1!
1-
19
b100000 I
0T
1W
b1000000 _

#2020000
0!
0-
09

#2025000
1!
1(
1*
1,
1-
1.
10
17
19
1:
1<
1A
1E
1G
1H
b1000000 I
0W
1X
b1 _

#2030000
0!
0-
09

#2035000
1!
0(
0*
0,
1-
0.
00
07
19
0:
0<
0A
0E
0G
0H
b1 I
1J
0X
b10 _

#2040000
0!
0-
09

#2045000
1!
b1000110 +
1-
b1000110 6
19
b1000110 @
b10 I
0J
b1000111 K
b101110 M
1N
b10001110000000000000000 ]
b10001101111111111110110 ^
b100 _
b101110 l
b1000111111000 m

#2050000
0!
b1000110 &
0-
b1000110 5
09
b1000110 C
b101101 L
b1000110 Y
b1000110 Z

#2055000
1!
1-
19
b100 I
0N
b1000111111000 O
1Q
b1000 _
b1000111111000 n

#2060000
0!
0-
09

#2065000
1!
1-
19
b1000 I
b1000111111000 P
0Q
1S
b111111111111111111111111111111111110111000001000 \
b10000 _

#2070000
0!
0-
09

#2075000
1!
1-
19
b10000 I
0S
1T
b100000 _

#2080000
0!
0-
09

#2085000
1!
1-
19
b100000 I
0T
1W
b1000000 _

#2090000
0!
0-
09

#2095000
1!
1(
1*
1,
1-
1.
10
17
19
1:
1<
1A
1E
1G
1H
b1000000 I
0W
1X
b1 _

#2100000
0!
0-
09

#2105000
1!
0(
0*
0,
1-
0.
00
07
19
0:
0<
0A
0E
0G
0H
b1 I
1J
0X
b10 _

#2110000
0!
0-
09

#2115000
1!
b1000101 +
1-
b1000101 6
19
b1000101 @
b10 I
0J
b1000110 K
b101101 M
1N
b10001100000000000000000 ]
b10001011111111111110110 ^
b100 _
b101101 l
b1000110010100 m

#2120000
0!
b1000101 &
0-
b1000101 5
09
b1000101 C
b101100 L
b1000101 Y
b1000101 Z

#2125000
1!
1-
19
b100 I
0N
b1000110010100 O
1Q
b1000 _
b1000110010100 n

#2130000
0!
0-
09

#2135000
1!
1-
19
b1000 I
b1000110010100 P
0Q
1S
b111111111111111111111111111111111110111001101100 \
b10000 _

#2140000
0!
0-
09

#2145000
1!
1-
19
b10000 I
0S
1T
b100000 _

#2150000
0!
0-
09

#2155000
1!
1-
19
b100000 I
0T
1W
b1000000 _

#2160000
0!
0-
09

#2165000
1!
1(
1*
1,
1-
1.
10
17
19
1:
1<
1A
1E
1G
1H
b1000000 I
0W
1X
b1 _

#2170000
0!
0-
09

#2175000
1!
0(
0*
0,
1-
0.
00
07
19
0:
0<
0A
0E
0G
0H
b1 I
1J
0X
b10 _

#2180000
0!
0-
09

#2185000
1!
b1000100 +
1-
b1000100 6
19
b1000100 @
b10 I
0J
b1000101 K
b101100 M
1N
b10001010000000000000000 ]
b10001001111111111110110 ^
b100 _
b101100 l
b1000100110000 m

#2190000
0!
b1000100 &
0-
b1000100 5
09
b1000100 C
b101011 L
b1000100 Y
b1000100 Z

#2195000
1!
1-
19
b100 I
0N
b1000100110000 O
1Q
b1000 _
b1000100110000 n

#2200000
0!
0-
09

#2205000
1!
1-
19
b1000 I
b1000100110000 P
0Q
1S
b111111111111111111111111111111111110111011010000 \
b10000 _

#2210000
0!
0-
09

#2215000
1!
1-
19
b10000 I
0S
1T
b100000 _

#2220000
0!
0-
09

#2225000
1!
1-
19
b100000 I
0T
1W
b1000000 _

#2230000
0!
0-
09

#2235000
1!
1(
1*
1,
1-
1.
10
17
19
1:
1<
1A
1E
1G
1H
b1000000 I
0W
1X
b1 _

#2240000
0!
0-
09

#2245000
1!
0(
0*
0,
1-
0.
00
07
19
0:
0<
0A
0E
0G
0H
b1 I
1J
0X
b10 _

#2250000
0!
0-
09

#2255000
1!
b1000011 +
1-
b1000011 6
19
b1000011 @
b10 I
0J
b1000100 K
b101011 M
1N
b10001000000000000000000 ]
b10000111111111111110110 ^
b100 _
b101011 l
b1000011001100 m

#2260000
0!
b1000011 &
0-
b1000011 5
09
b1000011 C
b101010 L
b1000011 Y
b1000011 Z

#2265000
1!
1-
19
b100 I
0N
b1000011001100 O
1Q
b1000 _
b1000011001100 n

#2270000
0!
0-
09

#2275000
1!
1-
19
b1000 I
b1000011001100 P
0Q
1S
b111111111111111111111111111111111110111100110100 \
b10000 _

#2280000
0!
0-
09

#2285000
1!
1-
19
b10000 I
0S
1T
b100000 _

#2290000
0!
0-
09

#2295000
1!
1-
19
b100000 I
0T
1W
b1000000 _

#2300000
0!
0-
09

#2305000
1!
1(
1*
1,
1-
1.
10
17
19
1:
1<
1A
1E
1G
1H
b1000000 I
0W
1X
b1 _

#2310000
0!
0-
09

#2315000
1!
0(
0*
0,
1-
0.
00
07
19
0:
0<
0A
0E
0G
0H
b1 I
1J
0X
b10 _

#2320000
0!
0-
09

#2325000
1!
b1000010 +
1-
b1000010 6
19
b1000010 @
b10 I
0J
b1000011 K
b101010 M
1N
b10000110000000000000000 ]
b10000101111111111110110 ^
b100 _
b101010 l
b1000001101000 m

#2330000
0!
b1000010 &
0-
b1000010 5
09
b1000010 C
b101001 L
b1000010 Y
b1000010 Z

#2335000
1!
1-
19
b100 I
0N
b1000001101000 O
1Q
b1000 _
b1000001101000 n

#2340000
0!
0-
09

#2345000
1!
1-
19
b1000 I
b1000001101000 P
0Q
1S
b111111111111111111111111111111111110111110011000 \
b10000 _

#2350000
0!
0-
09

#2355000
1!
1-
19
b10000 I
0S
1T
b100000 _

#2360000
0!
0-
09

#2365000
1!
1-
19
b100000 I
0T
1W
b1000000 _

#2370000
0!
0-
09

#2375000
1!
1(
1*
1,
1-
1.
10
17
19
1:
1<
1A
1E
1G
1H
b1000000 I
0W
1X
b1 _

#2380000
0!
0-
09

#2385000
1!
0(
0*
0,
1-
0.
00
07
19
0:
0<
0A
0E
0G
0H
b1 I
1J
0X
b10 _

#2390000
0!
0-
09

#2395000
1!
b1000001 +
1-
b1000001 6
19
b1000001 @
b10 I
0J
b1000010 K
b101001 M
1N
b10000100000000000000000 ]
b10000011111111111110110 ^
b100 _
b101001 l
b1000000000100 m

#2400000
0!
b1000001 &
0-
b1000001 5
09
b1000001 C
b101000 L
b1000001 Y
b1000001 Z

#2405000
1!
1-
19
b100 I
0N
b1000000000100 O
1Q
b1000 _
b1000000000100 n

#2410000
0!
0-
09

#2415000
1!
1-
19
b1000 I
b1000000000100 P
0Q
1S
b111111111111111111111111111111111110111111111100 \
b10000 _

#2420000
0!
0-
09

#2425000
1!
1-
19
b10000 I
0S
1T
b100000 _

#2430000
0!
0-
09

#2435000
1!
1-
19
b100000 I
0T
1W
b1000000 _

#2440000
0!
0-
09

#2445000
1!
1(
1*
1,
1-
1.
10
17
19
1:
1<
1A
1E
1G
1H
b1000000 I
0W
1X
b1 _

#2450000
0!
0-
09

#2455000
1!
0(
0*
0,
1-
0.
00
07
19
0:
0<
0A
0E
0G
0H
b1 I
1J
0X
b10 _

#2460000
0!
0-
09

#2465000
1!
b1000000 +
1-
b1000000 6
19
b1000000 @
b10 I
0J
b1000001 K
b101000 M
1N
b10000010000000000000000 ]
b10000001111111111110110 ^
b100 _
b101000 l
b111110100000 m

#2470000
0!
b1000000 &
0-
b1000000 5
09
b1000000 C
b100111 L
b1000000 Y
b1000000 Z

#2475000
1!
1-
19
b100 I
0N
b111110100000 O
1Q
b1000 _
b111110100000 n

#2480000
0!
0-
09

#2485000
1!
1-
19
b1000 I
b111110100000 P
0Q
1S
b111111111111111111111111111111111111000001100000 \
b10000 _

#2490000
0!
0-
09

#2495000
1!
1-
19
b10000 I
0S
1T
b100000 _

#2500000
0!
0-
09

#2505000
1!
1-
19
b100000 I
0T
1W
b1000000 _

#2510000
0!
0-
09

#2515000
1!
1(
1*
1,
1-
1.
10
17
19
1:
1<
1A
1E
1G
1H
b1000000 I
0W
1X
b1 _

#2520000
0!
0-
09

